{
	"info": {
		"_postman_id": "1892c85e-0909-4d89-af19-ca9fa08a79b4",
		"name": "media-backend",
		"schema": "https://schema.getpostman.com/json/collection/v2.1.0/collection.json"
	},
	"item": [
		{
			"name": "Obter mídias",
			"request": {
				"auth": {
					"type": "bearer",
					"bearer": [
						{
							"key": "token",
							"value": "eyJhbGciOiJIUzUxMiJ9.eyJzdWIiOiJ1c2VyIiwiZXhwIjoxNTk5NjMzNTUxLCJpYXQiOjE1OTk2MTU1NTF9.JFX9lFRTvZgOY6C5xaS-xKQDU-ulITbIXk0aWTkjvEQj_OmOreIUx2AYr3jfKVUy9iDxEPvvtvMB94Zy1BOASg",
							"type": "string"
						}
					]
				},
				"method": "GET",
				"header": [],
				"url": {
					"raw": "http://ec2-15-228-52-37.sa-east-1.compute.amazonaws.com:8080/medias",
					"protocol": "http",
					"host": [
						"ec2-15-228-52-37",
						"sa-east-1",
						"compute",
						"amazonaws",
						"com"
					],
					"port": "8080",
					"path": [
						"medias"
					]
				}
			},
			"response": []
		},
		{
			"name": "Obter apenas mídias não deletadas",
			"request": {
				"auth": {
					"type": "bearer",
					"bearer": [
						{
							"key": "token",
							"value": "eyJhbGciOiJIUzUxMiJ9.eyJzdWIiOiJ1c2VyIiwiZXhwIjoxNTk5NjMzNTUxLCJpYXQiOjE1OTk2MTU1NTF9.JFX9lFRTvZgOY6C5xaS-xKQDU-ulITbIXk0aWTkjvEQj_OmOreIUx2AYr3jfKVUy9iDxEPvvtvMB94Zy1BOASg",
							"type": "string"
						}
					]
				},
				"method": "GET",
				"header": [],
				"url": {
					"raw": "http://ec2-15-228-52-37.sa-east-1.compute.amazonaws.com:8080/medias?onlyNotDeleted=true",
					"protocol": "http",
					"host": [
						"ec2-15-228-52-37",
						"sa-east-1",
						"compute",
						"amazonaws",
						"com"
					],
					"port": "8080",
					"path": [
						"medias"
					],
					"query": [
						{
							"key": "onlyNotDeleted",
							"value": "true"
						}
					]
				}
			},
			"response": []
		},
		{
			"name": "Obter mídia",
			"request": {
				"auth": {
					"type": "bearer",
					"bearer": [
						{
							"key": "token",
							"value": "eyJhbGciOiJIUzUxMiJ9.eyJzdWIiOiJ1c2VyIiwiZXhwIjoxNTk5NjMzNTUxLCJpYXQiOjE1OTk2MTU1NTF9.JFX9lFRTvZgOY6C5xaS-xKQDU-ulITbIXk0aWTkjvEQj_OmOreIUx2AYr3jfKVUy9iDxEPvvtvMB94Zy1BOASg",
							"type": "string"
						}
					]
				},
				"method": "GET",
				"header": [],
				"url": {
					"raw": "http://ec2-15-228-52-37.sa-east-1.compute.amazonaws.com:8080/medias/1",
					"protocol": "http",
					"host": [
						"ec2-15-228-52-37",
						"sa-east-1",
						"compute",
						"amazonaws",
						"com"
					],
					"port": "8080",
					"path": [
						"medias",
						"1"
					]
				}
			},
			"response": []
		},
		{
			"name": "Criar mídia",
			"request": {
				"auth": {
					"type": "bearer",
					"bearer": [
						{
							"key": "token",
							"value": "eyJhbGciOiJIUzUxMiJ9.eyJzdWIiOiJ1c2VyIiwiZXhwIjoxNTk5NjMzNTUxLCJpYXQiOjE1OTk2MTU1NTF9.JFX9lFRTvZgOY6C5xaS-xKQDU-ulITbIXk0aWTkjvEQj_OmOreIUx2AYr3jfKVUy9iDxEPvvtvMB94Zy1BOASg",
							"type": "string"
						}
					]
				},
				"method": "POST",
				"header": [],
				"body": {
					"mode": "formdata",
					"formdata": [
						{
							"key": "media",
							"type": "file",
							"src": "/C:/Users/rafael/Downloads/media.json"
						},
						{
							"key": "file",
							"type": "file",
							"src": "/C:/Users/rafael/Downloads/file.avi"
						}
					]
				},
				"url": {
					"raw": "http://ec2-15-228-52-37.sa-east-1.compute.amazonaws.com:8080/medias",
					"protocol": "http",
					"host": [
						"ec2-15-228-52-37",
						"sa-east-1",
						"compute",
						"amazonaws",
						"com"
					],
					"port": "8080",
					"path": [
						"medias"
					]
				}
			},
			"response": []
		},
		{
			"name": "Atualizar mídia",
			"request": {
				"auth": {
					"type": "bearer",
					"bearer": [
						{
							"key": "token",
							"value": "eyJhbGciOiJIUzUxMiJ9.eyJzdWIiOiJ1c2VyIiwiZXhwIjoxNTk5NjMzNTUxLCJpYXQiOjE1OTk2MTU1NTF9.JFX9lFRTvZgOY6C5xaS-xKQDU-ulITbIXk0aWTkjvEQj_OmOreIUx2AYr3jfKVUy9iDxEPvvtvMB94Zy1BOASg",
							"type": "string"
						}
					]
				},
				"method": "PUT",
				"header": [
					{
						"key": "Content-Type",
						"value": "application/json",
						"type": "text"
					}
				],
				"body": {
					"mode": "raw",
					"raw": "{\n    \"name\": \"Video 2\",\n    \"url\": \"https://media-rafpvianabucket.s3-sa-east-1.amazonaws.com/medias/8d1c2998-eb5a-4781-bb0f-e5a8f775cde1\",\n    \"duration\": 500,\n    \"uploadDate\": \"2020-09-07\",\n    \"deleted\": false\n}"
				},
				"url": {
					"raw": "http://ec2-15-228-52-37.sa-east-1.compute.amazonaws.com:8080/medias/1",
					"protocol": "http",
					"host": [
						"ec2-15-228-52-37",
						"sa-east-1",
						"compute",
						"amazonaws",
						"com"
					],
					"port": "8080",
					"path": [
						"medias",
						"1"
					]
				}
			},
			"response": []
		},
		{
			"name": "Deletar mídia",
			"request": {
				"auth": {
					"type": "bearer",
					"bearer": [
						{
							"key": "token",
							"value": "eyJhbGciOiJIUzUxMiJ9.eyJzdWIiOiJ1c2VyIiwiZXhwIjoxNTk5NjMzNTUxLCJpYXQiOjE1OTk2MTU1NTF9.JFX9lFRTvZgOY6C5xaS-xKQDU-ulITbIXk0aWTkjvEQj_OmOreIUx2AYr3jfKVUy9iDxEPvvtvMB94Zy1BOASg",
							"type": "string"
						}
					]
				},
				"method": "DELETE",
				"header": [],
				"url": {
					"raw": "http://ec2-15-228-52-37.sa-east-1.compute.amazonaws.com:8080/medias/1",
					"protocol": "http",
					"host": [
						"ec2-15-228-52-37",
						"sa-east-1",
						"compute",
						"amazonaws",
						"com"
					],
					"port": "8080",
					"path": [
						"medias",
						"1"
					]
				}
			},
			"response": []
		},
		{
			"name": "Obter token do usuário",
			"protocolProfileBehavior": {
				"disabledSystemHeaders": {
					"content-type": true
				}
			},
			"request": {
				"method": "POST",
				"header": [
					{
						"key": "Content-Type",
						"value": "application/json",
						"type": "text"
					}
				],
				"body": {
					"mode": "raw",
					"raw": "{\r\n    \"username\":\"user\",\r\n    \"password\":\"password\"\r\n}"
				},
				"url": {
					"raw": "http://ec2-15-228-52-37.sa-east-1.compute.amazonaws.com:8080/authenticate",
					"protocol": "http",
					"host": [
						"ec2-15-228-52-37",
						"sa-east-1",
						"compute",
						"amazonaws",
						"com"
					],
					"port": "8080",
					"path": [
						"authenticate"
					]
				}
			},
			"response": []
		},
		{
			"name": "Registrar usuário",
			"request": {
				"method": "POST",
				"header": [
					{
						"key": "Content-Type",
						"value": "application/json",
						"type": "text"
					}
				],
				"body": {
					"mode": "raw",
					"raw": "{\r\n    \"username\":\"user\",\r\n    \"password\":\"password\"\r\n}"
				},
				"url": {
					"raw": "http://ec2-15-228-52-37.sa-east-1.compute.amazonaws.com:8080/register",
					"protocol": "http",
					"host": [
						"ec2-15-228-52-37",
						"sa-east-1",
						"compute",
						"amazonaws",
						"com"
					],
					"port": "8080",
					"path": [
						"register"
					]
				}
			},
			"response": []
		}
	]
}